Of caravans and cross-validation
…
Introduction

Following Amelia, let’s look at the ISLR Caravan example (pp. 164–167).

The goal is to apply KNN to the Caravan dataset from the ISLR package. The first thing I’m going to do is make a copy of it as a tibble, then see what we’ve got.

caravan <- 
  as_tibble(ISLR::Caravan) %>%
  print()

# A tibble: 5,822 × 86
   MOSTYPE MAANTHUI MGEMOMV MGEMLEEF MOSHOOFD MGODRK MGODPR MGODOV MGODGE MRELGE MRELSA
*    <dbl>    <dbl>   <dbl>    <dbl>    <dbl>  <dbl>  <dbl>  <dbl>  <dbl>  <dbl>  <dbl>
1       33        1       3        2        8      0      5      1      3      7      0
2       37        1       2        2        8      1      4      1      4      6      2
3       37        1       2        2        8      0      4      2      4      3      2
4        9        1       3        3        3      2      3      2      4      5      2
5       40        1       4        2       10      1      4      1      4      7      1
6       23        1       2        1        5      0      5      0      5      0      6
7       39        2       3        2        9      2      2      0      5      7      2
8       33        1       2        3        8      0      7      0      2      7      2
9       33        1       2        4        8      0      1      3      6      6      0
10      11        2       3        3        3      3      5      0      2      7      0
# ... with 5,812 more rows, and 75 more variables: MRELOV <dbl>, MFALLEEN <dbl>,
#   MFGEKIND <dbl>, MFWEKIND <dbl>, MOPLHOOG <dbl>, MOPLMIDD <dbl>, MOPLLAAG <dbl>,
#   MBERHOOG <dbl>, MBERZELF <dbl>, MBERBOER <dbl>, MBERMIDD <dbl>, MBERARBG <dbl>,
#   MBERARBO <dbl>, MSKA <dbl>, MSKB1 <dbl>, MSKB2 <dbl>, MSKC <dbl>, MSKD <dbl>,
#   MHHUUR <dbl>, MHKOOP <dbl>, MAUT1 <dbl>, MAUT2 <dbl>, MAUT0 <dbl>, MZFONDS <dbl>,
#   MZPART <dbl>, MINKM30 <dbl>, MINK3045 <dbl>, MINK4575 <dbl>, MINK7512 <dbl>,
#   MINK123M <dbl>, MINKGEM <dbl>, MKOOPKLA <dbl>, PWAPART <dbl>, PWABEDR <dbl>,
#   PWALAND <dbl>, PPERSAUT <dbl>, PBESAUT <dbl>, PMOTSCO <dbl>, PVRAAUT <dbl>,
#   PAANHANG <dbl>, PTRACTOR <dbl>, PWERKT <dbl>, PBROM <dbl>, PLEVEN <dbl>,
…
Yikes! That’s a lot of variables. Following Amelia, let’s standardise the numeric variables of the dataframe.

caravan_standard <- 
  caravan %>%
  select(-Purchase) %>%
  dmap(~as.vector(scale(.x))) %>%
  print() 

dmap() is deprecated. Please use the new colwise family in dplyr.
E.g., summarise_all(), mutate_all(), etc.

# A tibble: 5,822 × 85
       MOSTYPE   MAANTHUI    MGEMOMV    MGEMLEEF   MOSHOOFD     MGODRK     MGODPR
         <dbl>      <dbl>      <dbl>       <dbl>      <dbl>      <dbl>      <dbl>
1   0.68084775 -0.2725565  0.4066617 -1.21685949  0.7793384 -0.6942510  0.2174254
2   0.99221162 -0.2725565 -0.8594262 -1.21685949  0.7793384  0.3025256 -0.3653787
3   0.99221162 -0.2725565 -0.8594262 -1.21685949  0.7793384 -0.6942510 -0.3653787
4  -1.18733547 -0.2725565  0.4066617  0.01075374 -0.9708962  1.2993023 -0.9481828
5   1.22573452 -0.2725565  1.6727497 -1.21685949  1.4794323  0.3025256 -0.3653787
6  -0.09756193 -0.2725565 -0.8594262 -2.44447272 -0.2708024 -0.6942510  0.2174254
7   1.14789355  2.1914562  0.4066617 -1.21685949  1.1293853  1.2993023 -1.5309868
8   0.68084775 -0.2725565 -0.8594262  0.01075374  0.7793384 -0.6942510  1.3830335
9   0.68084775 -0.2725565 -0.8594262  1.23836697  0.7793384 -0.6942510 -2.1137909
10 -1.03165354  2.1914562  0.4066617  0.01075374 -0.9708962  2.2960789  0.2174254
# ... with 5,812 more rows, and 78 more variables: MGODOV <dbl>, MGODGE <dbl>,
#   MRELGE <dbl>, MRELSA <dbl>, MRELOV <dbl>, MFALLEEN <dbl>, MFGEKIND <dbl>,
#   MFWEKIND <dbl>, MOPLHOOG <dbl>, MOPLMIDD <dbl>, MOPLLAAG <dbl>, MBERHOOG <dbl>,
#   MBERZELF <dbl>, MBERBOER <dbl>, MBERMIDD <dbl>, MBERARBG <dbl>, MBERARBO <dbl>,
#   MSKA <dbl>, MSKB1 <dbl>, MSKB2 <dbl>, MSKC <dbl>, MSKD <dbl>, MHHUUR <dbl>,
#   MHKOOP <dbl>, MAUT1 <dbl>, MAUT2 <dbl>, MAUT0 <dbl>, MZFONDS <dbl>, MZPART <dbl>,
#   MINKM30 <dbl>, MINK3045 <dbl>, MINK4575 <dbl>, MINK7512 <dbl>, MINK123M <dbl>,
#   MINKGEM <dbl>, MKOOPKLA <dbl>, PWAPART <dbl>, PWABEDR <dbl>, PWALAND <dbl>,
#   PPERSAUT <dbl>, PBESAUT <dbl>, PMOTSCO <dbl>, PVRAAUT <dbl>, PAANHANG <dbl>,
…
To act like lm(), we need to keep the target variable in a data-frame alongside the predictor variables. So let’s do that.

caravan_standard_new <- 
  caravan %>%
  dmap_if(is.numeric, ~as.vector(scale(.x))) %>%
  print() 

dmap_if() is deprecated. Please use the new colwise family in dplyr.
E.g., summarise_if(), mutate_if(), etc.

dmap() is deprecated. Please use the new colwise family in dplyr.
E.g., summarise_all(), mutate_all(), etc.

# A tibble: 5,822 × 86
       MOSTYPE   MAANTHUI    MGEMOMV    MGEMLEEF   MOSHOOFD     MGODRK     MGODPR
*        <dbl>      <dbl>      <dbl>       <dbl>      <dbl>      <dbl>      <dbl>
1   0.68084775 -0.2725565  0.4066617 -1.21685949  0.7793384 -0.6942510  0.2174254
2   0.99221162 -0.2725565 -0.8594262 -1.21685949  0.7793384  0.3025256 -0.3653787
3   0.99221162 -0.2725565 -0.8594262 -1.21685949  0.7793384 -0.6942510 -0.3653787
4  -1.18733547 -0.2725565  0.4066617  0.01075374 -0.9708962  1.2993023 -0.9481828
5   1.22573452 -0.2725565  1.6727497 -1.21685949  1.4794323  0.3025256 -0.3653787
6  -0.09756193 -0.2725565 -0.8594262 -2.44447272 -0.2708024 -0.6942510  0.2174254
7   1.14789355  2.1914562  0.4066617 -1.21685949  1.1293853  1.2993023 -1.5309868
8   0.68084775 -0.2725565 -0.8594262  0.01075374  0.7793384 -0.6942510  1.3830335
9   0.68084775 -0.2725565 -0.8594262  1.23836697  0.7793384 -0.6942510 -2.1137909
10 -1.03165354  2.1914562  0.4066617  0.01075374 -0.9708962  2.2960789  0.2174254
# ... with 5,812 more rows, and 79 more variables: MGODOV <dbl>, MGODGE <dbl>,
#   MRELGE <dbl>, MRELSA <dbl>, MRELOV <dbl>, MFALLEEN <dbl>, MFGEKIND <dbl>,
#   MFWEKIND <dbl>, MOPLHOOG <dbl>, MOPLMIDD <dbl>, MOPLLAAG <dbl>, MBERHOOG <dbl>,
#   MBERZELF <dbl>, MBERBOER <dbl>, MBERMIDD <dbl>, MBERARBG <dbl>, MBERARBO <dbl>,
#   MSKA <dbl>, MSKB1 <dbl>, MSKB2 <dbl>, MSKC <dbl>, MSKD <dbl>, MHHUUR <dbl>,
#   MHKOOP <dbl>, MAUT1 <dbl>, MAUT2 <dbl>, MAUT0 <dbl>, MZFONDS <dbl>, MZPART <dbl>,
#   MINKM30 <dbl>, MINK3045 <dbl>, MINK4575 <dbl>, MINK7512 <dbl>, MINK123M <dbl>,
#   MINKGEM <dbl>, MKOOPKLA <dbl>, PWAPART <dbl>, PWABEDR <dbl>, PWALAND <dbl>,
#   PPERSAUT <dbl>, PBESAUT <dbl>, PMOTSCO <dbl>, PVRAAUT <dbl>, PAANHANG <dbl>,
…
caravan_summary <- 
  caravan_standard_new %>%
  crossv_kfold(k = 20) %>%
  mutate(
    pred = map2(train, test, knn_new, "Purchase", k = 1),
    resp = map(test, get_resample_column, "Purchase")
  ) %>%
  unnest(pred, resp) %>%
  group_by(.id, pred, resp) %>%
  summarise(count = n()) %>%
  print()

Source: local data frame [78 x 4]
Groups: .id, pred [?]

     .id   pred   resp count
   <chr> <fctr> <fctr> <int>
1     01     No     No   259
2     01     No    Yes    14
3     01    Yes     No    16
4     01    Yes    Yes     3
5     02     No     No   258
6     02     No    Yes    18
7     02    Yes     No    14
8     02    Yes    Yes     2
9     03     No     No   251
10    03     No    Yes    23
# ... with 68 more rows
…
