Parameter-assessment using bootstrapping
…
noise <- function(x){
  rnorm(length(x), sd = 0.1)
}

df_regression <- 
  data_frame(
    x = runif(n = 100, min = 0, max = 1),
    y = truth(x) + noise(x)
  ) %>%
  print()

# A tibble: 100 × 2
           x        y
       <dbl>    <dbl>
1  0.3983524 1.466856
2  0.1314643 1.230083
3  0.4241691 1.691412
4  0.6169780 1.882185
5  0.1010143 1.301517
6  0.6248860 1.955027
7  0.7520183 1.911545
8  0.9528740 1.884810
9  0.1925271 1.258083
10 0.2846609 1.416590
# ... with 90 more rows
…
In bootstrapping, the thought is to create a bunch of new datasets sampled with replacement from the original dataset. Thankfully, there is a “modelr” function to help us.

df_regression_bootstrap <- 
  df_regression %>%
  modelr::bootstrap(10000) %>% # broom-modelr collision alert
  print()

# A tibble: 10,000 × 2
            strap   .id
           <list> <chr>
1  <S3: resample> 00001
2  <S3: resample> 00002
3  <S3: resample> 00003
4  <S3: resample> 00004
5  <S3: resample> 00005
6  <S3: resample> 00006
7  <S3: resample> 00007
8  <S3: resample> 00008
9  <S3: resample> 00009
10 <S3: resample> 00010
# ... with 9,990 more rows

Using this dataframe, we can evaluate our quadratic model for each member of strap.

fn_model <- function(data){
  lm(y ~ poly(x, 2), data = data)
}

df_regression_bootstrap_model <- 
  df_regression_bootstrap %>%
  mutate(model = map(strap, fn_model)) %>%
  print()

# A tibble: 10,000 × 3
            strap   .id    model
           <list> <chr>   <list>
1  <S3: resample> 00001 <S3: lm>
2  <S3: resample> 00002 <S3: lm>
3  <S3: resample> 00003 <S3: lm>
4  <S3: resample> 00004 <S3: lm>
5  <S3: resample> 00005 <S3: lm>
6  <S3: resample> 00006 <S3: lm>
7  <S3: resample> 00007 <S3: lm>
8  <S3: resample> 00008 <S3: lm>
9  <S3: resample> 00009 <S3: lm>
10 <S3: resample> 00010 <S3: lm>
# ... with 9,990 more rows

Now we want to get the parameters. So we use “broom”.

df_regression_bootstrap_param <-
  df_regression_bootstrap_model %>%
  mutate(param = map(model, tidy)) %>%
  select(.id, param) %>%
  unnest() %>%
  print()

# A tibble: 30,000 × 6
     .id        term   estimate   std.error  statistic       p.value
   <chr>       <chr>      <dbl>       <dbl>      <dbl>         <dbl>
1  00001 (Intercept)  1.6631311 0.008962036 185.575141 1.448097e-125
2  00001 poly(x, 2)1  3.2432067 0.089620359  36.188281  3.934643e-58
3  00001 poly(x, 2)2 -0.6142712 0.089620359  -6.854148  6.650652e-10
4  00002 (Intercept)  1.5868824 0.009168418 173.081384 1.225110e-122
5  00002 poly(x, 2)1  3.1215898 0.091684178  34.047203  9.514691e-56
6  00002 poly(x, 2)2 -0.4434019 0.091684178  -4.836187  4.973027e-06
7  00003 (Intercept)  1.6437947 0.009372512 175.384651 3.412183e-123
8  00003 poly(x, 2)1  3.1156577 0.093725117  33.242506  8.077153e-55
9  00003 poly(x, 2)2 -0.5824392 0.093725117  -6.214334  1.290738e-08
10 00004 (Intercept)  1.6373716 0.008221258 199.163155 1.554767e-128
# ... with 29,990 more rows
…
Note to self - I think the poly() function uses orthogonal polynomials, so I’d like to find out how to transform these coefficient estimates into coefficients that multiply \((1, x, x^2)\). I know it’s something simple - just to sit down and do it.

There are two ways we can further investigate the significance of each term - visually, and to make a table of the proportion of bootstrap models where the sign of the parameter is different from the sign of the mean.

df_regression_bootstrap_param_scaled <- 
  df_regression_bootstrap_param %>%
  left_join(df_regression_bootstrap_param_mean, by = "term") %>%
  transmute(
    .id,
    term,
    estimate_scaled = estimate/estimate_mean
  ) %>%
  print()

# A tibble: 30,000 × 3
     .id        term estimate_scaled
   <chr>       <chr>           <dbl>
1  00001 (Intercept)       1.0225215
2  00001 poly(x, 2)1       1.0531489
3  00001 poly(x, 2)2       1.1001065
4  00002 (Intercept)       0.9756426
5  00002 poly(x, 2)1       1.0136569
6  00002 poly(x, 2)2       0.7940943
7  00003 (Intercept)       1.0106332
8  00003 poly(x, 2)1       1.0117306
9  00003 poly(x, 2)2       1.0430981
10 00004 (Intercept)       1.0066841
# ... with 29,990 more rows
…
grid <- 
  df_regression %>% 
  expand(x = seq_range(x, 20))

boot_pred <- 
  df_regression_bootstrap_model %>% 
  transmute(
    .id,
    data = map2(list(grid), model, add_predictions, var = "y")
  ) %>%
  unnest() %>%
  print()

# A tibble: 200,000 × 3
     .id           x        y
   <chr>       <dbl>    <dbl>
1  00001 0.007057359 1.021346
2  00001 0.059044188 1.117783
3  00001 0.111031017 1.209733
4  00001 0.163017846 1.297193
5  00001 0.215004675 1.380165
6  00001 0.266991504 1.458648
7  00001 0.318978334 1.532643
8  00001 0.370965163 1.602149
9  00001 0.422951992 1.667166
10 00001 0.474938821 1.727695
# ... with 199,990 more rows
…
