Model-selection using cross-validation
…
noise <- function(x){
  rnorm(length(x), sd = 0.1)
}

We assemble a dataset using a random uniform distribution in \(x\); our \(y\) is the sum of truth and noise.

df <- 
  data_frame(
    x = runif(n = 100, min = 0, max = 1),
    y = truth(x) + noise(x)
  ) %>%
  print()

# A tibble: 100 x 2
           x        y
       <dbl>    <dbl>
1  0.5210547 1.855529
2  0.4627843 1.573038
3  0.5244896 1.677966
4  0.9891559 1.947288
5  0.5416644 1.835031
6  0.6756441 1.889039
7  0.3519536 1.962250
8  0.5697320 1.759407
9  0.7733154 1.918960
10 0.2193805 1.339989
# ... with 90 more rows
…
This is a special case where we have a single independent variable. This is great for showing the concepts, but I am interested to explore visual tools that I can use to assess models that use multiple independent variables. It seems that focusing on the residual might be a useful place to start.

Evaluating a single model

We will start by following Hadley and Garrett, building a dataframe that to contain a number of random splits of our original data into a data to train a model, and data to test a model. We use the the crossv_mc() function from the modelr package.

df_split <-
  df %>%
  crossv_mc(n = 50) %>%
  print()

# A tibble: 50 x 3
            train           test   .id
           <list>         <list> <chr>
1  <S3: resample> <S3: resample>    01
2  <S3: resample> <S3: resample>    02
3  <S3: resample> <S3: resample>    03
4  <S3: resample> <S3: resample>    04
5  <S3: resample> <S3: resample>    05
6  <S3: resample> <S3: resample>    06
7  <S3: resample> <S3: resample>    07
8  <S3: resample> <S3: resample>    08
9  <S3: resample> <S3: resample>    09
10 <S3: resample> <S3: resample>    10
# ... with 40 more rows
…
The next step is to make a function that takes a dataframe and returns a model. A lot of things will be made easier if you make functions in advance - or make them later so that it appears that you made them in advance (only git will know). In our case, we are going to look at how a linear model, linear in \(x\). Keep in mind that the “truth” is quadratic in \(x\).

# given a dataframe, return a model
fn_model <- function(df){
  lm(y ~ x, data = df)
}

We use the map() function from the purrr package to make models based on our training sets and our model function.

df_split_model <-
  df_split %>%
  mutate(model = map(train, fn_model)) %>%
  print()

# A tibble: 50 x 4
            train           test   .id    model
           <list>         <list> <chr>   <list>
1  <S3: resample> <S3: resample>    01 <S3: lm>
2  <S3: resample> <S3: resample>    02 <S3: lm>
3  <S3: resample> <S3: resample>    03 <S3: lm>
4  <S3: resample> <S3: resample>    04 <S3: lm>
5  <S3: resample> <S3: resample>    05 <S3: lm>
6  <S3: resample> <S3: resample>    06 <S3: lm>
7  <S3: resample> <S3: resample>    07 <S3: lm>
8  <S3: resample> <S3: resample>    08 <S3: lm>
9  <S3: resample> <S3: resample>    09 <S3: lm>
10 <S3: resample> <S3: resample>    10 <S3: lm>
# ... with 40 more rows
…
This next set of steps is a bit ambitious. We want to make a tall dataframe, where the split becomes a variable that can take the values train or test. For each model-split combination, we make a set of predictions and responses. We unnest the dataframe, then for each observation, we calculate the residual.

df_split_resid <- 
  df_split_model %>%
  gather(key = split, value = data, train, test) %>%
  mutate(
    pred = map2(data, model, sample_prediction),
    resp = map2(data, model, sample_response)
  ) %>%
  select(-model, -data) %>%
  unnest() %>%
  mutate(resid = pred - resp) %>%
  print()

# A tibble: 5,000 x 5
     .id split     pred     resp        resid
   <chr> <chr>    <dbl>    <dbl>        <dbl>
1     01 train 1.706350 1.855529 -0.149178776
2     01 train 1.652638 1.573038  0.079599650
3     01 train 1.709516 1.677966  0.031550473
4     01 train 1.725347 1.835031 -0.109683252
5     01 train 1.848846 1.889039 -0.040193328
6     01 train 1.751219 1.759407 -0.008187925
7     01 train 1.938876 1.918960  0.019916145
8     01 train 1.428275 1.339989  0.088286744
9     01 train 1.785805 1.822474 -0.036668960
10    01 train 1.686278 1.733915 -0.047637221
# ... with 4,990 more rows
…
We can see that fitting models that are linear in \(x\) to data that are quadratic in \(x\) may be problematic. Although the kernel-density estimates for all the training residuals seem consistent one to another, the kernel-density estimates of the test sets seem inconsistent with those for the training sets, and with each other.

We can reduce the data for each training or test set to a single statistic. For regression problems, Hadley likes to use the RMSE, or root-mean-squared error because it gives us a useful first idea of how a given model performs, and it is expressed in the same units as the response.

df_split_rmse <- 
  df_split_resid %>%
  group_by(.id, split) %>%
  summarize(
    rmse = sqrt(sum(resid*resid)/length(resid))
  ) %>%
  ungroup() %>%
  print()

# A tibble: 100 x 3
     .id split      rmse
   <chr> <chr>     <dbl>
1     01  test 0.1623577
2     01 train 0.1042993
3     02  test 0.1154751
4     02 train 0.1189499
5     03  test 0.0981743
6     03 train 0.1232048
7     04  test 0.1217852
8     04 train 0.1174028
9     05  test 0.1061283
10    05 train 0.1212039
# ... with 90 more rows
…
Note to self, it would be interesting to have a function that takes a model as an input and returns a metric of complexity. Could be useful later.

Let’s join this model dataframe to the split-sample dataframe.

df_sample_model <- 
  expand.grid(.id = df_split$.id, model_name = df_model$model_name, stringsAsFactors = FALSE) %>%
  as_data_frame() %>%
  left_join(df_split, by = ".id") %>%
  left_join(df_model, by = "model_name") %>%
  print()

# A tibble: 250 x 5
     .id model_name          train           test model_creator
   <chr>      <chr>         <list>         <list>        <list>
1     01        one <S3: resample> <S3: resample>         <fun>
2     02        one <S3: resample> <S3: resample>         <fun>
3     03        one <S3: resample> <S3: resample>         <fun>
4     04        one <S3: resample> <S3: resample>         <fun>
5     05        one <S3: resample> <S3: resample>         <fun>
6     06        one <S3: resample> <S3: resample>         <fun>
7     07        one <S3: resample> <S3: resample>         <fun>
8     08        one <S3: resample> <S3: resample>         <fun>
9     09        one <S3: resample> <S3: resample>         <fun>
10    10        one <S3: resample> <S3: resample>         <fun>
# ... with 240 more rows

We now have a dataframe that has, for each combination of split and model-specification, a training set and a function that can be used to build a model. We make a convenience function to put our model-creator functions to use, then create our models:

make_model <- function(data, model_creator){
  model_creator(data)
}

df_sample_model_created <-
  df_sample_model %>%
  mutate(
    model = map2(train, model_creator, make_model)
  ) %>%
  print()

# A tibble: 250 x 6
     .id model_name          train           test model_creator    model
   <chr>      <chr>         <list>         <list>        <list>   <list>
1     01        one <S3: resample> <S3: resample>         <fun> <S3: lm>
2     02        one <S3: resample> <S3: resample>         <fun> <S3: lm>
3     03        one <S3: resample> <S3: resample>         <fun> <S3: lm>
4     04        one <S3: resample> <S3: resample>         <fun> <S3: lm>
5     05        one <S3: resample> <S3: resample>         <fun> <S3: lm>
6     06        one <S3: resample> <S3: resample>         <fun> <S3: lm>
7     07        one <S3: resample> <S3: resample>         <fun> <S3: lm>
8     08        one <S3: resample> <S3: resample>         <fun> <S3: lm>
9     09        one <S3: resample> <S3: resample>         <fun> <S3: lm>
10    10        one <S3: resample> <S3: resample>         <fun> <S3: lm>
# ... with 240 more rows
Now, lets generate some residuals:

df_sample_resid <-
  df_sample_model_created %>%
  gather(key = split, value = data, train, test) %>%
  mutate(
    pred = map2(data, model, sample_prediction),
    resp = map2(data, model, sample_response)
  ) %>%
  select(.id, model_name, split, pred, resp) %>%
  unnest() %>%
  mutate(resid = pred - resp) %>%
  print()

# A tibble: 25,000 x 6
     .id model_name split     pred     resp        resid
   <chr>      <chr> <chr>    <dbl>    <dbl>        <dbl>
1     01        one train 1.706350 1.855529 -0.149178776
2     01        one train 1.652638 1.573038  0.079599650
3     01        one train 1.709516 1.677966  0.031550473
4     01        one train 1.725347 1.835031 -0.109683252
5     01        one train 1.848846 1.889039 -0.040193328
6     01        one train 1.751219 1.759407 -0.008187925
7     01        one train 1.938876 1.918960  0.019916145
8     01        one train 1.428275 1.339989  0.088286744
9     01        one train 1.785805 1.822474 -0.036668960
10    01        one train 1.686278 1.733915 -0.047637221
# ... with 24,990 more rows
…
df_sample_rmse <- 
  df_sample_resid %>%
  group_by(.id, model_name, split) %>%
  summarize(
    rmse = sqrt(sum(resid*resid)/length(resid))
  ) %>%
  ungroup() %>%
  print()

# A tibble: 500 x 4
     .id model_name split       rmse
   <chr>      <chr> <chr>      <dbl>
1     01       five  test 0.14853889
2     01       five train 0.09358149
3     01       four  test 0.15137501
4     01       four train 0.09367255
5     01        one  test 0.16235774
6     01        one train 0.10429925
7     01      three  test 0.14097677
8     01      three train 0.09409568
9     01        two  test 0.12855223
10    01        two train 0.09539883
# ... with 490 more rows
…
